…
## `group_by()`

``` r
weather_df |>
  group_by(name)
```

    ## # A tibble: 2,190 × 7
    ## # Groups:   name [3]
    ##    name           id          date        prcp  tmax  tmin month     
    ##    <chr>          <chr>       <date>     <dbl> <dbl> <dbl> <date>    
    ##  1 CentralPark_NY USW00094728 2021-01-01   157   4.4   0.6 2021-01-01
    ##  2 CentralPark_NY USW00094728 2021-01-02    13  10.6   2.2 2021-01-01
    ##  3 CentralPark_NY USW00094728 2021-01-03    56   3.3   1.1 2021-01-01
    ##  4 CentralPark_NY USW00094728 2021-01-04     5   6.1   1.7 2021-01-01
    ##  5 CentralPark_NY USW00094728 2021-01-05     0   5.6   2.2 2021-01-01
    ##  6 CentralPark_NY USW00094728 2021-01-06     0   5     1.1 2021-01-01
    ##  7 CentralPark_NY USW00094728 2021-01-07     0   5    -1   2021-01-01
    ##  8 CentralPark_NY USW00094728 2021-01-08     0   2.8  -2.7 2021-01-01
    ##  9 CentralPark_NY USW00094728 2021-01-09     0   2.8  -4.3 2021-01-01
    ## 10 CentralPark_NY USW00094728 2021-01-10     0   5    -1.6 2021-01-01
    ## # ℹ 2,180 more rows

``` r
weather_df |>
  group_by(name, month)
```

    ## # A tibble: 2,190 × 7
    ## # Groups:   name, month [72]
    ##    name           id          date        prcp  tmax  tmin month     
    ##    <chr>          <chr>       <date>     <dbl> <dbl> <dbl> <date>    
    ##  1 CentralPark_NY USW00094728 2021-01-01   157   4.4   0.6 2021-01-01
    ##  2 CentralPark_NY USW00094728 2021-01-02    13  10.6   2.2 2021-01-01
    ##  3 CentralPark_NY USW00094728 2021-01-03    56   3.3   1.1 2021-01-01
    ##  4 CentralPark_NY USW00094728 2021-01-04     5   6.1   1.7 2021-01-01
    ##  5 CentralPark_NY USW00094728 2021-01-05     0   5.6   2.2 2021-01-01
    ##  6 CentralPark_NY USW00094728 2021-01-06     0   5     1.1 2021-01-01
    ##  7 CentralPark_NY USW00094728 2021-01-07     0   5    -1   2021-01-01
    ##  8 CentralPark_NY USW00094728 2021-01-08     0   2.8  -2.7 2021-01-01
    ##  9 CentralPark_NY USW00094728 2021-01-09     0   2.8  -4.3 2021-01-01
    ## 10 CentralPark_NY USW00094728 2021-01-10     0   5    -1.6 2021-01-01
    ## # ℹ 2,180 more rows
…
| name           | n_obs | n_dist |
|:---------------|------:|-------:|
| CentralPark_NY |   730 |     24 |
| Molokai_HI     |   730 |     24 |
| Waterhole_WA   |   730 |     24 |

``` r
weather_df |>
  group_by(name, month) |>
  summarise(
    n_obs = n()
  )
```

    ## # A tibble: 72 × 3
    ## # Groups:   name [3]
    ##    name           month      n_obs
    ##    <chr>          <date>     <int>
    ##  1 CentralPark_NY 2021-01-01    31
    ##  2 CentralPark_NY 2021-02-01    28
    ##  3 CentralPark_NY 2021-03-01    31
    ##  4 CentralPark_NY 2021-04-01    30
    ##  5 CentralPark_NY 2021-05-01    31
    ##  6 CentralPark_NY 2021-06-01    30
    ##  7 CentralPark_NY 2021-07-01    31
    ##  8 CentralPark_NY 2021-08-01    31
    ##  9 CentralPark_NY 2021-09-01    30
    ## 10 CentralPark_NY 2021-10-01    31
    ## # ℹ 62 more rows
…
``` r
weather_df |>
  group_by(name, month) |>
  summarise(
    mean_tmax = mean(tmax, na.rm = TRUE),
    median_tmin = median(tmin, na.rm = TRUE),
    sd_prcp = sd(prcp, na.rm = TRUE)
  )
```

    ## # A tibble: 72 × 5
    ## # Groups:   name [3]
    ##    name           month      mean_tmax median_tmin sd_prcp
    ##    <chr>          <date>         <dbl>       <dbl>   <dbl>
    ##  1 CentralPark_NY 2021-01-01      4.27       -0.5     47.3
    ##  2 CentralPark_NY 2021-02-01      3.87       -1.85    98.1
    ##  3 CentralPark_NY 2021-03-01     12.3         5       71.3
    ##  4 CentralPark_NY 2021-04-01     17.6         8.05    52.4
    ##  5 CentralPark_NY 2021-05-01     22.1        11.1     74.7
    ##  6 CentralPark_NY 2021-06-01     28.1        18.0     43.3
    ##  7 CentralPark_NY 2021-07-01     28.4        21.1    151. 
    ##  8 CentralPark_NY 2021-08-01     28.8        22.2    236. 
    ##  9 CentralPark_NY 2021-09-01     24.8        17.5    333. 
    ## 10 CentralPark_NY 2021-10-01     19.9        13.9    151. 
    ## # ℹ 62 more rows
…
## Grouped mutates

``` r
weather_df |>
  group_by(name) |>
  mutate(mean_tmax = mean(tmax, na.rm = TRUE))
```

    ## # A tibble: 2,190 × 8
    ## # Groups:   name [3]
    ##    name           id          date        prcp  tmax  tmin month      mean_tmax
    ##    <chr>          <chr>       <date>     <dbl> <dbl> <dbl> <date>         <dbl>
    ##  1 CentralPark_NY USW00094728 2021-01-01   157   4.4   0.6 2021-01-01      17.7
    ##  2 CentralPark_NY USW00094728 2021-01-02    13  10.6   2.2 2021-01-01      17.7
    ##  3 CentralPark_NY USW00094728 2021-01-03    56   3.3   1.1 2021-01-01      17.7
    ##  4 CentralPark_NY USW00094728 2021-01-04     5   6.1   1.7 2021-01-01      17.7
    ##  5 CentralPark_NY USW00094728 2021-01-05     0   5.6   2.2 2021-01-01      17.7
    ##  6 CentralPark_NY USW00094728 2021-01-06     0   5     1.1 2021-01-01      17.7
    ##  7 CentralPark_NY USW00094728 2021-01-07     0   5    -1   2021-01-01      17.7
    ##  8 CentralPark_NY USW00094728 2021-01-08     0   2.8  -2.7 2021-01-01      17.7
    ##  9 CentralPark_NY USW00094728 2021-01-09     0   2.8  -4.3 2021-01-01      17.7
    ## 10 CentralPark_NY USW00094728 2021-01-10     0   5    -1.6 2021-01-01      17.7
    ## # ℹ 2,180 more rows
…
`lag` function:

``` r
weather_df |>
  mutate(
    lagged_temp = lag(tmax)
  )
```

    ## # A tibble: 2,190 × 8
    ##    name           id         date        prcp  tmax  tmin month      lagged_temp
    ##    <chr>          <chr>      <date>     <dbl> <dbl> <dbl> <date>           <dbl>
    ##  1 CentralPark_NY USW000947… 2021-01-01   157   4.4   0.6 2021-01-01        NA  
    ##  2 CentralPark_NY USW000947… 2021-01-02    13  10.6   2.2 2021-01-01         4.4
    ##  3 CentralPark_NY USW000947… 2021-01-03    56   3.3   1.1 2021-01-01        10.6
    ##  4 CentralPark_NY USW000947… 2021-01-04     5   6.1   1.7 2021-01-01         3.3
    ##  5 CentralPark_NY USW000947… 2021-01-05     0   5.6   2.2 2021-01-01         6.1
    ##  6 CentralPark_NY USW000947… 2021-01-06     0   5     1.1 2021-01-01         5.6
    ##  7 CentralPark_NY USW000947… 2021-01-07     0   5    -1   2021-01-01         5  
    ##  8 CentralPark_NY USW000947… 2021-01-08     0   2.8  -2.7 2021-01-01         5  
    ##  9 CentralPark_NY USW000947… 2021-01-09     0   2.8  -4.3 2021-01-01         2.8
    ## 10 CentralPark_NY USW000947… 2021-01-10     0   5    -1.6 2021-01-01         2.8
    ## # ℹ 2,180 more rows
…
